// Jest Snapshot v1, https://goo.gl/fbAQLP

exports[`Components Comment Comment Snapshot 1`] = `
<View
  style={
    Array [
      Object {
        "backgroundColor": "white",
        "borderRadius": 5,
        "flexDirection": "row",
        "marginVertical": 8,
        "paddingBottom": 8,
        "paddingLeft": 8,
        "paddingRight": 8,
        "paddingTop": 8,
      },
    ]
  }
>
  <View
    style={
      Array [
        Object {
          "alignItems": "center",
          "backgroundColor": "grey",
          "borderRadius": 10,
          "height": 20,
          "justifyContent": "center",
          "marginRight": 16,
          "marginTop": 10,
          "width": 20,
        },
      ]
    }
  >
    <Text
      style={
        Array [
          Object {
            "color": "white",
            "fontSize": 8,
          },
        ]
      }
    >
      1
    </Text>
  </View>
  <View
    style={
      Object {
        "flex": 1,
      }
    }
  >
    <View
      style={
        Array [
          Object {
            "alignItems": "flex-start",
            "flexDirection": "column",
            "justifyContent": "space-between",
            "marginTop": 10,
          },
        ]
      }
    >
      <Text
        style={
          Array [
            Object {
              "color": "#454D65",
              "fontSize": 14,
              "fontWeight": "500",
            },
          ]
        }
      >
        1233
      </Text>
      <Text
        style={
          Array [
            Object {
              "color": "#454D65",
              "fontSize": 14,
              "fontWeight": "500",
            },
          ]
        }
      >
        email@email.io
      </Text>
    </View>
    <Text
      style={
        Array [
          Object {
            "color": "#838899",
            "fontSize": 12,
            "marginTop": 2,
          },
        ]
      }
    >
      12345
    </Text>
  </View>
</View>
`;

exports[`Components Header Header Snapshot 1`] = `
<View
  style={
    Array [
      Object {
        "alignItems": "center",
        "backgroundColor": "#FFF",
        "borderBottomColor": "#EBECF4",
        "borderBottomWidth": 1,
        "justifyContent": "center",
        "paddingBottom": 16,
        "paddingTop": 64,
        "shadowColor": "#454D65",
        "shadowOpacity": 0.2,
        "shadowRadius": 15,
        "zIndex": 16,
      },
    ]
  }
  styles={
    Object {
      "shadowOffset": Object {
        "height": 5,
      },
    }
  }
>
  <Text
    style={
      Array [
        Object {
          "fontSize": 20,
          "fontWeight": "500",
        },
      ]
    }
    testID="title"
  >
    Feed
  </Text>
</View>
`;

exports[`Components Post Post Snapshot 1`] = `
<View
  style={
    Array [
      Object {
        "backgroundColor": "white",
        "borderRadius": 5,
        "flexDirection": "row",
        "marginVertical": 8,
        "paddingBottom": 8,
        "paddingLeft": 8,
        "paddingRight": 8,
        "paddingTop": 8,
      },
    ]
  }
>
  <View
    style={
      Array [
        Object {
          "alignItems": "center",
          "backgroundColor": "grey",
          "borderRadius": 18,
          "height": 36,
          "justifyContent": "center",
          "marginRight": 16,
          "marginTop": 10,
          "width": 36,
        },
      ]
    }
  >
    <Text
      style={
        Array [
          Object {
            "color": "white",
          },
        ]
      }
    >
      1
    </Text>
  </View>
  <View
    style={
      Object {
        "flex": 1,
      }
    }
  >
    <View
      style={
        Array [
          Object {
            "alignItems": "flex-start",
            "flexDirection": "row",
            "justifyContent": "space-between",
            "marginTop": 10,
          },
        ]
      }
    >
      <Text
        style={
          Array [
            Object {
              "color": "#454D65",
              "fontSize": 20,
              "fontWeight": "500",
            },
          ]
        }
      >
        1233
      </Text>
    </View>
    <Text
      style={
        Array [
          Object {
            "color": "#838899",
            "fontSize": 14,
            "marginTop": 10,
          },
        ]
      }
    >
      12345
    </Text>
  </View>
</View>
`;
